{
  "annotations": {
    "list": [
      {
        "builtIn": 1,
        "datasource": "-- Grafana --",
        "enable": true,
        "hide": true,
        "iconColor": "rgba(0, 211, 255, 1)",
        "name": "Annotations & Alerts",
        "type": "dashboard"
      }
    ]
  },
  "editable": true,
  "gnetId": null,
  "graphTooltip": 0,
  "id": 1,
  "links": [],
  "panels": [
    {
      "datasource": null,
      "description": "**Lead Time To Change** is the arithmetic mean of the time between opening an incident and closing it. ",
      "fieldConfig": {
        "defaults": {
          "color": {
            "fixedColor": "blue",
            "mode": "fixed"
          },
          "custom": {
            "axisLabel": "",
            "axisPlacement": "auto",
            "barAlignment": 0,
            "drawStyle": "line",
            "fillOpacity": 10,
            "gradientMode": "none",
            "hideFrom": {
              "graph": false,
              "legend": false,
              "tooltip": false,
              "viz": false
            },
            "lineInterpolation": "linear",
            "lineWidth": 1,
            "pointSize": 5,
            "scaleDistribution": {
              "type": "linear"
            },
            "showPoints": "never",
            "spanNulls": false
          },
          "mappings": [],
          "thresholds": {
            "mode": "absolute",
            "steps": [
              {
                "color": "blue",
                "value": null
              }
            ]
          },
          "unit": "s"
        },
        "overrides": []
      },
      "gridPos": {
        "h": 12,
        "w": 9,
        "x": 0,
        "y": 0
      },
      "id": 3,
      "options": {
        "graph": {},
        "legend": {
          "calcs": [],
          "displayMode": "list",
          "placement": "bottom"
        },
        "tooltip": {
          "mode": "single"
        },
        "tooltipOptions": {
          "mode": "single"
        }
      },
      "pluginVersion": "7.5.7",
      "targets": [
        {
          "exemplar": false,
          "expr": "application_org_g7i_four_metrics_scheduler_MetricsScheduler_lead_time_seconds",
          "format": "time_series",
          "instant": false,
          "interval": "",
          "legendFormat": "Arithmetic mean of the time between opening an incident and closing it",
          "refId": "A"
        }
      ],
      "timeFrom": null,
      "timeShift": null,
      "title": "Lead Time To Change",
      "transformations": [],
      "type": "timeseries"
    },
    {
      "datasource": null,
      "description": "**Lead Time to Change** is the arithmetic mean of the time between opening an incident and closing it. ",
      "fieldConfig": {
        "defaults": {
          "color": {
            "mode": "thresholds"
          },
          "displayName": "Less than",
          "mappings": [
            {
              "options": {
                "from": 2592000,
                "result": {
                  "index": 0,
                  "text": "6 meses"
                },
                "to": 15552000
              },
              "type": "range"
            },
            {
              "options": {
                "from": 0,
                "result": {
                  "index": 1,
                  "text": "1 día"
                },
                "to": 86400
              },
              "type": "range"
            },
            {
              "options": {
                "from": 604800,
                "result": {
                  "index": 2,
                  "text": "1 mes"
                },
                "to": 2592000
              },
              "type": "range"
            },
            {
              "options": {
                "from": 86400,
                "result": {
                  "index": 3,
                  "text": "1 semana"
                },
                "to": 604800
              },
              "type": "range"
            }
          ],
          "thresholds": {
            "mode": "absolute",
            "steps": [
              {
                "color": "green",
                "value": null
              },
              {
                "color": "yellow",
                "value": 86400
              },
              {
                "color": "orange",
                "value": 604800
              },
              {
                "color": "red",
                "value": 2592000
              }
            ]
          },
          "unit": "s"
        },
        "overrides": []
      },
      "gridPos": {
        "h": 6,
        "w": 6,
        "x": 9,
        "y": 0
      },
      "id": 7,
      "options": {
        "colorMode": "value",
        "graphMode": "none",
        "justifyMode": "center",
        "orientation": "auto",
        "reduceOptions": {
          "calcs": [
            "lastNotNull"
          ],
          "fields": "",
          "values": false
        },
        "text": {},
        "textMode": "auto"
      },
      "pluginVersion": "7.5.7",
      "targets": [
        {
          "exemplar": true,
          "expr": "application_org_g7i_four_metrics_scheduler_MetricsScheduler_lead_time_seconds",
          "hide": false,
          "interval": "",
          "legendFormat": "",
          "refId": "A"
        }
      ],
      "timeFrom": null,
      "timeShift": null,
      "title": "Lead Time to Change",
      "type": "stat"
    },
    {
      "datasource": null,
      "description": "**Deployments number** is the number of deployments to production environment.",
      "fieldConfig": {
        "defaults": {
          "color": {
            "mode": "thresholds"
          },
          "mappings": [],
          "thresholds": {
            "mode": "absolute",
            "steps": [
              {
                "color": "blue",
                "value": null
              }
            ]
          },
          "unit": "none"
        },
        "overrides": []
      },
      "gridPos": {
        "h": 6,
        "w": 9,
        "x": 15,
        "y": 0
      },
      "id": 2,
      "options": {
        "colorMode": "value",
        "graphMode": "area",
        "justifyMode": "auto",
        "orientation": "auto",
        "reduceOptions": {
          "calcs": [
            "lastNotNull"
          ],
          "fields": "",
          "values": false
        },
        "text": {},
        "textMode": "auto"
      },
      "pluginVersion": "7.5.7",
      "targets": [
        {
          "exemplar": true,
          "expr": "application_org_g7i_four_metrics_scheduler_MetricsScheduler_number_deployments",
          "format": "time_series",
          "hide": false,
          "instant": false,
          "interval": "",
          "intervalFactor": 1,
          "legendFormat": "Despliegues durante el periodo establecido",
          "refId": "A"
        }
      ],
      "timeFrom": null,
      "timeShift": null,
      "title": "Deployments number",
      "transformations": [],
      "type": "stat"
    },
    {
      "datasource": null,
      "description": "**Deployment Frequency** is the median time that all builds made in the established period of time are put into production.",
      "fieldConfig": {
        "defaults": {
          "color": {
            "mode": "thresholds"
          },
          "displayName": "Less than",
          "mappings": [
            {
              "options": {
                "from": 2592000,
                "result": {
                  "index": 0,
                  "text": "6 meses"
                },
                "to": 15552000
              },
              "type": "range"
            },
            {
              "options": {
                "from": 0,
                "result": {
                  "index": 1,
                  "text": "1 día"
                },
                "to": 86400
              },
              "type": "range"
            },
            {
              "options": {
                "from": 604800,
                "result": {
                  "index": 2,
                  "text": "1 mes"
                },
                "to": 2592000
              },
              "type": "range"
            },
            {
              "options": {
                "from": 86400,
                "result": {
                  "index": 3,
                  "text": "1 semana"
                },
                "to": 604800
              },
              "type": "range"
            }
          ],
          "thresholds": {
            "mode": "absolute",
            "steps": [
              {
                "color": "green",
                "value": null
              },
              {
                "color": "yellow",
                "value": 86400
              },
              {
                "color": "orange",
                "value": 604800
              },
              {
                "color": "red",
                "value": 2592000
              }
            ]
          },
          "unit": "s"
        },
        "overrides": []
      },
      "gridPos": {
        "h": 6,
        "w": 6,
        "x": 9,
        "y": 6
      },
      "id": 8,
      "options": {
        "colorMode": "value",
        "graphMode": "none",
        "justifyMode": "center",
        "orientation": "auto",
        "reduceOptions": {
          "calcs": [
            "lastNotNull"
          ],
          "fields": "",
          "values": false
        },
        "text": {},
        "textMode": "auto"
      },
      "pluginVersion": "7.5.7",
      "targets": [
        {
          "exemplar": true,
          "expr": "application_org_g7i_four_metrics_scheduler_MetricsScheduler_deployment_frequency_seconds",
          "interval": "",
          "legendFormat": "",
          "refId": "A"
        }
      ],
      "timeFrom": null,
      "timeShift": null,
      "title": "Deployment Frequency",
      "transformations": [],
      "type": "stat"
    },
    {
      "aliasColors": {},
      "bars": false,
      "dashLength": 10,
      "dashes": false,
      "datasource": null,
      "description": "**Deployment Frequency** is the median time that all builds made in the established period of time are put into production.",
      "fieldConfig": {
        "defaults": {
          "unit": "s"
        },
        "overrides": [
          {
            "matcher": {
              "id": "byName",
              "options": "B {__name__=\"application_org_g7i_four_metrics_scheduler_MetricsScheduler_mttr_seconds\", instance=\"localhost:8080\", job=\"fourmetrics\"}"
            },
            "properties": [
              {
                "id": "displayName",
                "value": "Media acumulada de tiempo entre los despliegues que han causado fallos"
              }
            ]
          }
        ]
      },
      "fill": 1,
      "fillGradient": 0,
      "gridPos": {
        "h": 6,
        "w": 9,
        "x": 15,
        "y": 6
      },
      "hiddenSeries": false,
      "id": 11,
      "legend": {
        "avg": false,
        "current": false,
        "hideEmpty": false,
        "hideZero": false,
        "max": false,
        "min": false,
        "show": true,
        "total": false,
        "values": false
      },
      "lines": true,
      "linewidth": 1,
      "nullPointMode": "null",
      "options": {
        "alertThreshold": true
      },
      "percentage": false,
      "pluginVersion": "7.5.7",
      "pointradius": 2,
      "points": false,
      "renderer": "flot",
      "seriesOverrides": [
        {
          "$$hashKey": "object:444",
          "alias": "Median time it takes to close an issue of any type.",
          "color": "#5794F2"
        }
      ],
      "spaceLength": 10,
      "stack": false,
      "steppedLine": false,
      "targets": [
        {
          "exemplar": false,
          "expr": "application_org_g7i_four_metrics_scheduler_MetricsScheduler_deployment_frequency_seconds",
          "format": "time_series",
          "hide": false,
          "instant": false,
          "interval": "",
          "legendFormat": "Median time it takes to close an issue of any type.",
          "refId": "A"
        }
      ],
      "thresholds": [],
      "timeFrom": null,
      "timeRegions": [],
      "timeShift": null,
      "title": "Deployment Frequency",
      "tooltip": {
        "shared": true,
        "sort": 0,
        "value_type": "individual"
      },
      "transformations": [],
      "type": "graph",
      "xaxis": {
        "buckets": null,
        "mode": "time",
        "name": null,
        "show": true,
        "values": []
      },
      "yaxes": [
        {
          "$$hashKey": "object:657",
          "format": "s",
          "label": null,
          "logBase": 1,
          "max": null,
          "min": null,
          "show": true
        },
        {
          "$$hashKey": "object:658",
          "format": "short",
          "label": null,
          "logBase": 1,
          "max": null,
          "min": null,
          "show": true
        }
      ],
      "yaxis": {
        "align": false,
        "alignLevel": null
      }
    },
    {
      "aliasColors": {},
      "bars": false,
      "dashLength": 10,
      "dashes": false,
      "datasource": null,
      "description": "**Change Failure Rate** is the number of open incidents divided by the number of builds deployed in the established period.",
      "fieldConfig": {
        "defaults": {
          "unit": "percent"
        },
        "overrides": []
      },
      "fill": 1,
      "fillGradient": 0,
      "gridPos": {
        "h": 12,
        "w": 9,
        "x": 0,
        "y": 12
      },
      "hiddenSeries": false,
      "id": 12,
      "legend": {
        "alignAsTable": false,
        "avg": false,
        "current": false,
        "hideEmpty": false,
        "hideZero": false,
        "max": false,
        "min": false,
        "rightSide": false,
        "show": true,
        "total": false,
        "values": false
      },
      "lines": true,
      "linewidth": 1,
      "nullPointMode": "null",
      "options": {
        "alertThreshold": true
      },
      "percentage": false,
      "pluginVersion": "7.5.7",
      "pointradius": 2,
      "points": false,
      "renderer": "flot",
      "seriesOverrides": [
        {
          "$$hashKey": "object:394",
          "alias": "Percentage of failures to deployments made",
          "color": "#5794F2"
        }
      ],
      "spaceLength": 10,
      "stack": false,
      "steppedLine": false,
      "targets": [
        {
          "exemplar": false,
          "expr": "application_org_g7i_four_metrics_scheduler_MetricsScheduler_failure_rate_percent",
          "format": "time_series",
          "hide": false,
          "instant": false,
          "interval": "",
          "legendFormat": "Percentage of failures to deployments made",
          "refId": "A"
        }
      ],
      "thresholds": [],
      "timeFrom": null,
      "timeRegions": [],
      "timeShift": null,
      "title": "Change Failure Rate",
      "tooltip": {
        "shared": true,
        "sort": 0,
        "value_type": "individual"
      },
      "transformations": [],
      "type": "graph",
      "xaxis": {
        "buckets": null,
        "mode": "time",
        "name": null,
        "show": true,
        "values": []
      },
      "yaxes": [
        {
          "$$hashKey": "object:51",
          "format": "percent",
          "label": null,
          "logBase": 1,
          "max": null,
          "min": null,
          "show": true
        },
        {
          "$$hashKey": "object:52",
          "format": "short",
          "label": null,
          "logBase": 1,
          "max": null,
          "min": null,
          "show": true
        }
      ],
      "yaxis": {
        "align": false,
        "alignLevel": null
      }
    },
    {
      "datasource": null,
      "description": "**Change Failure Rate** is the number of open incidents divided by the number of builds deployed in the established period.",
      "fieldConfig": {
        "defaults": {
          "color": {
            "mode": "thresholds"
          },
          "mappings": [
            {
              "options": {
                "from": 60,
                "result": {
                  "index": 0,
                  "text": "Más del 60%"
                },
                "to": 9999999999
              },
              "type": "range"
            },
            {
              "options": {
                "from": 15,
                "result": {
                  "index": 1,
                  "text": "Menos del 60%"
                },
                "to": 59
              },
              "type": "range"
            },
            {
              "options": {
                "from": 0,
                "result": {
                  "index": 2,
                  "text": "Menos del 15%"
                },
                "to": 14
              },
              "type": "range"
            }
          ],
          "max": 100,
          "min": 0,
          "thresholds": {
            "mode": "percentage",
            "steps": [
              {
                "color": "green",
                "value": null
              },
              {
                "color": "yellow",
                "value": 15
              },
              {
                "color": "red",
                "value": 60
              }
            ]
          },
          "unit": "percent"
        },
        "overrides": []
      },
      "gridPos": {
        "h": 6,
        "w": 6,
        "x": 9,
        "y": 12
      },
      "id": 9,
      "options": {
        "colorMode": "value",
        "graphMode": "none",
        "justifyMode": "center",
        "orientation": "auto",
        "reduceOptions": {
          "calcs": [
            "lastNotNull"
          ],
          "fields": "",
          "values": false
        },
        "text": {},
        "textMode": "auto"
      },
      "pluginVersion": "7.5.7",
      "targets": [
        {
          "exemplar": true,
          "expr": "application_org_g7i_four_metrics_scheduler_MetricsScheduler_failure_rate_percent",
          "interval": "",
          "legendFormat": "",
          "refId": "A"
        }
      ],
      "timeFrom": null,
      "timeShift": null,
      "title": "Change Failure Rate",
      "type": "stat"
    },
    {
      "aliasColors": {},
      "bars": false,
      "dashLength": 10,
      "dashes": false,
      "datasource": null,
      "description": "**Median Time To Restore** is the median time it takes to close an issue of any type.",
      "fieldConfig": {
        "defaults": {
          "unit": "s"
        },
        "overrides": [
          {
            "matcher": {
              "id": "byName",
              "options": "B {__name__=\"application_org_g7i_four_metrics_scheduler_MetricsScheduler_mttr_seconds\", instance=\"localhost:8080\", job=\"fourmetrics\"}"
            },
            "properties": [
              {
                "id": "displayName",
                "value": "Media acumulada de tiempo entre los despliegues que han causado fallos"
              }
            ]
          }
        ]
      },
      "fill": 1,
      "fillGradient": 0,
      "gridPos": {
        "h": 12,
        "w": 9,
        "x": 15,
        "y": 12
      },
      "hiddenSeries": false,
      "id": 5,
      "legend": {
        "avg": false,
        "current": false,
        "max": false,
        "min": false,
        "show": true,
        "total": false,
        "values": false
      },
      "lines": true,
      "linewidth": 1,
      "nullPointMode": "null",
      "options": {
        "alertThreshold": true
      },
      "percentage": false,
      "pluginVersion": "7.5.7",
      "pointradius": 2,
      "points": false,
      "renderer": "flot",
      "seriesOverrides": [
        {
          "$$hashKey": "object:815",
          "alias": "Median time it takes to close an issue of any type.",
          "color": "#5794F2"
        }
      ],
      "spaceLength": 10,
      "stack": false,
      "steppedLine": false,
      "targets": [
        {
          "exemplar": false,
          "expr": "application_org_g7i_four_metrics_scheduler_MetricsScheduler_mttr_seconds",
          "format": "time_series",
          "hide": false,
          "instant": false,
          "interval": "",
          "legendFormat": "Median time it takes to close an issue of any type.",
          "refId": "A"
        }
      ],
      "thresholds": [],
      "timeFrom": null,
      "timeRegions": [],
      "timeShift": null,
      "title": "Median Time To Restore",
      "tooltip": {
        "shared": true,
        "sort": 0,
        "value_type": "individual"
      },
      "transformations": [],
      "type": "graph",
      "xaxis": {
        "buckets": null,
        "mode": "time",
        "name": null,
        "show": true,
        "values": []
      },
      "yaxes": [
        {
          "$$hashKey": "object:657",
          "format": "s",
          "label": null,
          "logBase": 1,
          "max": null,
          "min": null,
          "show": true
        },
        {
          "$$hashKey": "object:658",
          "format": "short",
          "label": null,
          "logBase": 1,
          "max": null,
          "min": null,
          "show": true
        }
      ],
      "yaxis": {
        "align": false,
        "alignLevel": null
      }
    },
    {
      "datasource": null,
      "description": "**Median Time To Restore** is the median time it takes to close an issue of any type.",
      "fieldConfig": {
        "defaults": {
          "color": {
            "mode": "thresholds"
          },
          "displayName": "Less than",
          "mappings": [
            {
              "options": {
                "from": 604800,
                "result": {
                  "index": 0,
                  "text": "1 mes"
                },
                "to": 2592000
              },
              "type": "range"
            },
            {
              "options": {
                "from": 86400,
                "result": {
                  "index": 1,
                  "text": "1 semana"
                },
                "to": 604800
              },
              "type": "range"
            },
            {
              "options": {
                "from": 3600,
                "result": {
                  "index": 2,
                  "text": "1 día"
                },
                "to": 86400
              },
              "type": "range"
            },
            {
              "options": {
                "from": 0,
                "result": {
                  "index": 3,
                  "text": "1 hora"
                },
                "to": 3600
              },
              "type": "range"
            }
          ],
          "thresholds": {
            "mode": "absolute",
            "steps": [
              {
                "color": "green",
                "value": null
              },
              {
                "color": "yellow",
                "value": 3600
              },
              {
                "color": "orange",
                "value": 86400
              },
              {
                "color": "red",
                "value": 604800
              }
            ]
          },
          "unit": "s"
        },
        "overrides": []
      },
      "gridPos": {
        "h": 6,
        "w": 6,
        "x": 9,
        "y": 18
      },
      "id": 10,
      "options": {
        "colorMode": "value",
        "graphMode": "none",
        "justifyMode": "center",
        "orientation": "auto",
        "reduceOptions": {
          "calcs": [
            "lastNotNull"
          ],
          "fields": "",
          "values": false
        },
        "text": {},
        "textMode": "auto"
      },
      "pluginVersion": "7.5.7",
      "targets": [
        {
          "exemplar": true,
          "expr": "application_org_g7i_four_metrics_scheduler_MetricsScheduler_mttr_seconds",
          "interval": "",
          "legendFormat": "",
          "refId": "A"
        }
      ],
      "timeFrom": null,
      "timeShift": null,
      "title": "Median Time To Restore",
      "type": "stat"
    }
  ],
  "refresh": "30s",
  "schemaVersion": 27,
  "style": "dark",
  "tags": [],
  "templating": {
    "list": []
  },
  "time": {
    "from": "now-1h",
    "to": "now"
  },
  "timepicker": {},
  "timezone": "",
  "title": "Four Metrics",
  "uid": "ag9Hu0eMk",
  "version": 4
}